…
## Parsed with column specification:
## cols(
##   year = col_double(),
##   week = col_double(),
##   gross = col_double(),
##   top_release = col_character(),
##   releases = col_double(),
##   long_weekend = col_logical()
## )

select <- dplyr::select
weekly.tb

## # A tibble: 2,067 x 6
##     year  week    gross top_release                        releases long_weekend
##    <dbl> <dbl>    <dbl> <chr>                                 <dbl> <lgl>       
##  1  1980     1  7614000 Kramer vs. Kramer                         1 FALSE       
##  2  1980     3  9970342 Kramer vs. Kramer                         3 FALSE       
##  3  1980     4  8295181 Kramer vs. Kramer                         2 FALSE       
##  4  1980     5 26605665 American Gigolo                           3 FALSE       
##  5  1980     6 24424638 Hero at Large                             4 FALSE       
##  6  1980     7 12312572 The Last Married Couple in America        2 FALSE       
##  7  1980     9 19702207 Kramer vs. Kramer                         2 FALSE       
##  8  1980    10  8879852 Coal Miner's Daughter                     2 FALSE       
##  9  1980    11  4276651 Kramer vs. Kramer                         2 FALSE       
## 10  1980    12  7686531 Hide in Plain Sight                       3 FALSE       
## # … with 2,057 more rows
…
